<?xml version="1.0" encoding="UTF-8" standalone="no"?>
<svg
   xmlns:dc="http://purl.org/dc/elements/1.1/"
   xmlns:cc="http://creativecommons.org/ns#"
   xmlns:rdf="http://www.w3.org/1999/02/22-rdf-syntax-ns#"
   xmlns:svg="http://www.w3.org/2000/svg"
   xmlns="http://www.w3.org/2000/svg"
   xmlns:sodipodi="http://sodipodi.sourceforge.net/DTD/sodipodi-0.dtd"
   xmlns:inkscape="http://www.inkscape.org/namespaces/inkscape"
   width="793.70081"
   height="559.37006"
   viewBox="0 0 210 148"
   version="1.1"
   id="svg8"
   inkscape:version="1.0.1 (3bc2e813f5, 2020-09-07)"
   sodipodi:docname="map_1.svg">
  <defs
     id="defs2">
    <marker
       style="overflow:visible"
       id="marker1561"
       refX="0"
       refY="0"
       orient="auto"
       inkscape:stockid="Arrow1Mend"
       inkscape:isstock="true">
      <path
         transform="matrix(-0.4,0,0,-0.4,-4,0)"
         style="fill:#000000;fill-opacity:1;fill-rule:evenodd;stroke:#000000;stroke-width:1pt;stroke-opacity:1"
         d="M 0,0 5,-5 -12.5,0 5,5 Z"
         id="path1559" />
    </marker>
    <marker
       style="overflow:visible"
       id="marker1449"
       refX="0"
       refY="0"
       orient="auto"
       inkscape:stockid="Arrow1Mend"
       inkscape:isstock="true"
       inkscape:collect="always">
      <path
         transform="matrix(-0.4,0,0,-0.4,-4,0)"
         style="fill:#000000;fill-opacity:1;fill-rule:evenodd;stroke:#000000;stroke-width:1pt;stroke-opacity:1"
         d="M 0,0 5,-5 -12.5,0 5,5 Z"
         id="path1447" />
    </marker>
    <marker
       style="overflow:visible"
       id="marker1439"
       refX="0"
       refY="0"
       orient="auto"
       inkscape:stockid="Arrow1Mend"
       inkscape:isstock="true">
      <path
         transform="matrix(-0.4,0,0,-0.4,-4,0)"
         style="fill:#000000;fill-opacity:1;fill-rule:evenodd;stroke:#000000;stroke-width:1pt;stroke-opacity:1"
         d="M 0,0 5,-5 -12.5,0 5,5 Z"
         id="path1437" />
    </marker>
    <marker
       style="overflow:visible"
       id="marker1429"
       refX="0"
       refY="0"
       orient="auto"
       inkscape:stockid="Arrow1Mend"
       inkscape:isstock="true">
      <path
         transform="matrix(-0.4,0,0,-0.4,-4,0)"
         style="fill:#000000;fill-opacity:1;fill-rule:evenodd;stroke:#000000;stroke-width:1pt;stroke-opacity:1"
         d="M 0,0 5,-5 -12.5,0 5,5 Z"
         id="path1427" />
    </marker>
    <marker
       style="overflow:visible"
       id="marker1238"
       refX="0"
       refY="0"
       orient="auto"
       inkscape:stockid="Arrow1Mend"
       inkscape:isstock="true"
       inkscape:collect="always">
      <path
         transform="matrix(-0.4,0,0,-0.4,-4,0)"
         style="fill:#000000;fill-opacity:1;fill-rule:evenodd;stroke:#000000;stroke-width:1pt;stroke-opacity:1"
         d="M 0,0 5,-5 -12.5,0 5,5 Z"
         id="path1236" />
    </marker>
    <marker
       style="overflow:visible"
       id="marker1196"
       refX="0"
       refY="0"
       orient="auto"
       inkscape:stockid="Arrow1Mend"
       inkscape:isstock="true"
       inkscape:collect="always">
      <path
         transform="matrix(-0.4,0,0,-0.4,-4,0)"
         style="fill:#000000;fill-opacity:1;fill-rule:evenodd;stroke:#000000;stroke-width:1pt;stroke-opacity:1"
         d="M 0,0 5,-5 -12.5,0 5,5 Z"
         id="path1194" />
    </marker>
    <marker
       style="overflow:visible"
       id="Arrow1Lend"
       refX="0"
       refY="0"
       orient="auto"
       inkscape:stockid="Arrow1Lend"
       inkscape:isstock="true">
      <path
         transform="matrix(-0.8,0,0,-0.8,-10,0)"
         style="fill:#000000;fill-opacity:1;fill-rule:evenodd;stroke:#000000;stroke-width:1pt;stroke-opacity:1"
         d="M 0,0 5,-5 -12.5,0 5,5 Z"
         id="path873" />
    </marker>
    <marker
       style="overflow:visible"
       id="Arrow1Mend"
       refX="0"
       refY="0"
       orient="auto"
       inkscape:stockid="Arrow1Mend"
       inkscape:isstock="true"
       inkscape:collect="always">
      <path
         transform="matrix(-0.4,0,0,-0.4,-4,0)"
         style="fill:#000000;fill-opacity:1;fill-rule:evenodd;stroke:#000000;stroke-width:1pt;stroke-opacity:1"
         d="M 0,0 5,-5 -12.5,0 5,5 Z"
         id="path879" />
    </marker>
    <marker
       style="overflow:visible"
       id="Arrow1Mstart"
       refX="0"
       refY="0"
       orient="auto"
       inkscape:stockid="Arrow1Mstart"
       inkscape:isstock="true">
      <path
         transform="matrix(0.4,0,0,0.4,4,0)"
         style="fill:#000000;fill-opacity:1;fill-rule:evenodd;stroke:#000000;stroke-width:1pt;stroke-opacity:1"
         d="M 0,0 5,-5 -12.5,0 5,5 Z"
         id="path876" />
    </marker>
  </defs>
  <sodipodi:namedview
     id="base"
     pagecolor="#ffffff"
     bordercolor="#666666"
     borderopacity="1.0"
     inkscape:pageopacity="0.0"
     inkscape:pageshadow="2"
     inkscape:zoom="0.70710678"
     inkscape:cx="582.59104"
     inkscape:cy="186.92399"
     inkscape:document-units="px"
     inkscape:current-layer="layer1"
     inkscape:document-rotation="0"
     showgrid="false"
     units="px"
     inkscape:window-width="1842"
     inkscape:window-height="1051"
     inkscape:window-x="-9"
     inkscape:window-y="-9"
     inkscape:window-maximized="1" />
  <metadata
     id="metadata5">
    <rdf:RDF>
      <cc:Work
         rdf:about="">
        <dc:format>image/svg+xml</dc:format>
        <dc:type
           rdf:resource="http://purl.org/dc/dcmitype/StillImage" />
        <dc:title></dc:title>
      </cc:Work>
    </rdf:RDF>
  </metadata>
  <g
     inkscape:label="Layer 1"
     inkscape:groupmode="layer"
     id="layer1">
    <g
       id="g1337"
       transform="translate(-56.761279,-11.748733)">
      <g
         id="g842">
        <circle
           style="opacity:0.99;fill:none;stroke:#000000;stroke-width:0.265;stroke-linecap:square;stroke-miterlimit:4;stroke-dasharray:none;stroke-dashoffset:0;stroke-opacity:0.982301"
           id="path833"
           cx="115.8497"
           cy="36.474701"
           r="8.6934528" />
        <text
           xml:space="preserve"
           style="font-style:normal;font-weight:normal;font-size:10.5833px;line-height:1.25;font-family:sans-serif;fill:#000000;fill-opacity:1;stroke:none;stroke-width:0.264583"
           x="113.39286"
           y="40.632439"
           id="text837"><tspan
             sodipodi:role="line"
             id="tspan835"
             x="113.39286"
             y="40.632439"
             style="stroke-width:0.264583">1</tspan></text>
      </g>
      <g
         id="g850"
         transform="translate(-27.592262,38.931548)">
        <circle
           style="opacity:0.99;fill:none;stroke:#000000;stroke-width:0.265;stroke-linecap:square;stroke-miterlimit:4;stroke-dasharray:none;stroke-dashoffset:0;stroke-opacity:0.982301"
           id="circle844"
           cx="115.8497"
           cy="36.474701"
           r="8.6934528" />
        <text
           xml:space="preserve"
           style="font-style:normal;font-weight:normal;font-size:10.5833px;line-height:1.25;font-family:sans-serif;fill:#000000;fill-opacity:1;stroke:none;stroke-width:0.264583"
           x="113.39286"
           y="40.632439"
           id="text848"><tspan
             sodipodi:role="line"
             id="tspan846"
             x="113.39286"
             y="40.632439"
             style="stroke-width:0.264583">2</tspan></text>
      </g>
      <g
         id="g858"
         transform="translate(26.647321,58.964286)">
        <circle
           style="opacity:0.99;fill:none;stroke:#000000;stroke-width:0.265;stroke-linecap:square;stroke-miterlimit:4;stroke-dasharray:none;stroke-dashoffset:0;stroke-opacity:0.982301"
           id="circle852"
           cx="115.8497"
           cy="36.474701"
           r="8.6934528" />
        <text
           xml:space="preserve"
           style="font-style:normal;font-weight:normal;font-size:10.5833px;line-height:1.25;font-family:sans-serif;fill:#000000;fill-opacity:1;stroke:none;stroke-width:0.264583"
           x="113.39286"
           y="40.632439"
           id="text856"><tspan
             sodipodi:role="line"
             id="tspan854"
             x="113.39286"
             y="40.632439"
             style="stroke-width:0.264583">3</tspan></text>
      </g>
      <g
         id="g866"
         transform="translate(-9.0714288,100.35268)">
        <circle
           style="opacity:0.99;fill:none;stroke:#000000;stroke-width:0.265;stroke-linecap:square;stroke-miterlimit:4;stroke-dasharray:none;stroke-dashoffset:0;stroke-opacity:0.982301"
           id="circle860"
           cx="115.8497"
           cy="36.474701"
           r="8.6934528" />
        <text
           xml:space="preserve"
           style="font-style:normal;font-weight:normal;font-size:10.5833px;line-height:1.25;font-family:sans-serif;fill:#000000;fill-opacity:1;stroke:none;stroke-width:0.264583"
           x="113.39286"
           y="40.632439"
           id="text864"><tspan
             sodipodi:role="line"
             id="tspan862"
             x="113.39286"
             y="40.632439"
             style="stroke-width:0.264583">4</tspan></text>
      </g>
      <path
         style="fill:none;stroke:#000000;stroke-width:0.264583px;stroke-linecap:butt;stroke-linejoin:miter;stroke-opacity:1;marker-end:url(#Arrow1Mend)"
         d="M 111.50297,43.656249 93.549106,67.657738"
         id="path868" />
      <path
         style="fill:none;stroke:#000000;stroke-width:0.264583px;stroke-linecap:butt;stroke-linejoin:miter;stroke-opacity:1;marker-end:url(#marker1196)"
         d="M 118.30655,44.790177 138.1503,87.12351"
         id="path1166" />
      <path
         style="fill:none;stroke:#000000;stroke-width:0.264583px;stroke-linecap:butt;stroke-linejoin:miter;stroke-opacity:1;marker-end:url(#marker1238)"
         d="M 90.147321,84.477676 103.56547,128.32292"
         id="path1234" />
      <text
         xml:space="preserve"
         style="font-style:normal;font-weight:normal;font-size:8.12585px;line-height:1.25;font-family:sans-serif;fill:#000000;fill-opacity:1;stroke:none;stroke-width:0.203147"
         x="95.203812"
         y="54.995537"
         id="text1284"><tspan
           sodipodi:role="line"
           id="tspan1282"
           x="95.203812"
           y="54.995537"
           style="stroke-width:0.203147">2</tspan></text>
      <text
         xml:space="preserve"
         style="font-style:normal;font-weight:normal;font-size:8.12585px;line-height:1.25;font-family:sans-serif;fill:#000000;fill-opacity:1;stroke:none;stroke-width:0.203147"
         x="89.156189"
         y="106.58929"
         id="text1288"><tspan
           sodipodi:role="line"
           id="tspan1286"
           x="89.156189"
           y="106.58929"
           style="stroke-width:0.203147">1</tspan></text>
      <text
         xml:space="preserve"
         style="font-style:normal;font-weight:normal;font-size:8.12585px;line-height:1.25;font-family:sans-serif;fill:#000000;fill-opacity:1;stroke:none;stroke-width:0.203147"
         x="133.00143"
         y="71.815475"
         id="text1292"><tspan
           sodipodi:role="line"
           id="tspan1290"
           x="133.00143"
           y="71.815475"
           style="stroke-width:0.203147">3</tspan></text>
    </g>
    <g
       id="g1425"
       transform="translate(47.906492,-11.664888)">
      <g
         id="g1381">
        <circle
           style="opacity:0.99;fill:none;stroke:#000000;stroke-width:0.265;stroke-linecap:square;stroke-miterlimit:4;stroke-dasharray:none;stroke-dashoffset:0;stroke-opacity:0.982301"
           id="circle1375"
           cx="115.8497"
           cy="36.474701"
           r="8.6934528" />
        <text
           xml:space="preserve"
           style="font-style:normal;font-weight:normal;font-size:10.5833px;line-height:1.25;font-family:sans-serif;fill:#000000;fill-opacity:1;stroke:none;stroke-width:0.264583"
           x="113.39286"
           y="40.632439"
           id="text1379"><tspan
             sodipodi:role="line"
             id="tspan1377"
             x="113.39286"
             y="40.632439"
             style="stroke-width:0.264583">1</tspan></text>
      </g>
      <g
         id="g1389"
         transform="translate(-27.592262,38.931548)">
        <circle
           style="opacity:0.99;fill:none;stroke:#000000;stroke-width:0.265;stroke-linecap:square;stroke-miterlimit:4;stroke-dasharray:none;stroke-dashoffset:0;stroke-opacity:0.982301"
           id="circle1383"
           cx="115.8497"
           cy="36.474701"
           r="8.6934528" />
        <text
           xml:space="preserve"
           style="font-style:normal;font-weight:normal;font-size:10.5833px;line-height:1.25;font-family:sans-serif;fill:#000000;fill-opacity:1;stroke:none;stroke-width:0.264583"
           x="113.39286"
           y="40.632439"
           id="text1387"><tspan
             sodipodi:role="line"
             id="tspan1385"
             x="113.39286"
             y="40.632439"
             style="stroke-width:0.264583">2</tspan></text>
      </g>
      <g
         id="g1397"
         transform="translate(26.647321,58.964286)">
        <circle
           style="opacity:0.99;fill:none;stroke:#000000;stroke-width:0.265;stroke-linecap:square;stroke-miterlimit:4;stroke-dasharray:none;stroke-dashoffset:0;stroke-opacity:0.982301"
           id="circle1391"
           cx="115.8497"
           cy="36.474701"
           r="8.6934528" />
        <text
           xml:space="preserve"
           style="font-style:normal;font-weight:normal;font-size:10.5833px;line-height:1.25;font-family:sans-serif;fill:#000000;fill-opacity:1;stroke:none;stroke-width:0.264583"
           x="113.39286"
           y="40.632439"
           id="text1395"><tspan
             sodipodi:role="line"
             id="tspan1393"
             x="113.39286"
             y="40.632439"
             style="stroke-width:0.264583">3</tspan></text>
      </g>
      <g
         id="g1405"
         transform="translate(-9.0714288,100.35268)">
        <circle
           style="opacity:0.99;fill:none;stroke:#000000;stroke-width:0.265;stroke-linecap:square;stroke-miterlimit:4;stroke-dasharray:none;stroke-dashoffset:0;stroke-opacity:0.982301"
           id="circle1399"
           cx="115.8497"
           cy="36.474701"
           r="8.6934528" />
        <text
           xml:space="preserve"
           style="font-style:normal;font-weight:normal;font-size:10.5833px;line-height:1.25;font-family:sans-serif;fill:#000000;fill-opacity:1;stroke:none;stroke-width:0.264583"
           x="113.39286"
           y="40.632439"
           id="text1403"><tspan
             sodipodi:role="line"
             id="tspan1401"
             x="113.39286"
             y="40.632439"
             style="stroke-width:0.264583">4</tspan></text>
      </g>
      <path
         style="fill:none;stroke:#000000;stroke-width:0.264583px;stroke-linecap:butt;stroke-linejoin:miter;stroke-opacity:1;marker-end:url(#marker1429)"
         d="M 111.50297,43.656249 93.549106,67.657738"
         id="path1407" />
      <path
         style="fill:none;stroke:#000000;stroke-width:0.264583px;stroke-linecap:butt;stroke-linejoin:miter;stroke-opacity:1;marker-end:url(#marker1439)"
         d="M 118.30655,44.790177 138.1503,87.12351"
         id="path1409" />
      <path
         style="fill:none;stroke:#000000;stroke-width:0.264583px;stroke-linecap:butt;stroke-linejoin:miter;stroke-opacity:1;marker-end:url(#marker1449)"
         d="M 90.147321,84.477676 103.56547,128.32292"
         id="path1411" />
      <text
         xml:space="preserve"
         style="font-style:normal;font-weight:normal;font-size:8.12585px;line-height:1.25;font-family:sans-serif;fill:#000000;fill-opacity:1;stroke:none;stroke-width:0.203147"
         x="95.203812"
         y="54.995537"
         id="text1415"><tspan
           sodipodi:role="line"
           id="tspan1413"
           x="95.203812"
           y="54.995537"
           style="stroke-width:0.203147">2</tspan></text>
      <text
         xml:space="preserve"
         style="font-style:normal;font-weight:normal;font-size:8.12585px;line-height:1.25;font-family:sans-serif;fill:#000000;fill-opacity:1;stroke:none;stroke-width:0.203147"
         x="89.156189"
         y="106.58929"
         id="text1419"><tspan
           sodipodi:role="line"
           id="tspan1417"
           x="89.156189"
           y="106.58929"
           style="stroke-width:0.203147">1</tspan></text>
      <text
         xml:space="preserve"
         style="font-style:normal;font-weight:normal;font-size:8.12585px;line-height:1.25;font-family:sans-serif;fill:#000000;fill-opacity:1;stroke:none;stroke-width:0.203147"
         x="133.00143"
         y="71.815475"
         id="text1423"><tspan
           sodipodi:role="line"
           id="tspan1421"
           x="133.00143"
           y="71.815475"
           style="stroke-width:0.203147">3</tspan></text>
      <path
         style="fill:none;stroke:#000000;stroke-width:0.264583;stroke-linecap:butt;stroke-linejoin:miter;stroke-miterlimit:4;stroke-dasharray:none;stroke-opacity:1;marker-end:url(#marker1561)"
         d="m 115.0574,45.038135 -4.05077,84.416085"
         id="path1557" />
      <text
         xml:space="preserve"
         style="font-style:normal;font-weight:normal;font-size:8.12585px;line-height:1.25;font-family:sans-serif;fill:#000000;fill-opacity:1;stroke:none;stroke-width:0.203147"
         x="116.18149"
         y="85.800598"
         id="text1655"><tspan
           sodipodi:role="line"
           id="tspan1653"
           x="116.18149"
           y="85.800598"
           style="stroke-width:0.203147">3</tspan></text>
    </g>
    <path
       style="fill:none;stroke:#000000;stroke-width:0.264583px;stroke-linecap:butt;stroke-linejoin:miter;stroke-opacity:1;marker-end:url(#Arrow1Lend)"
       d="M 96.761908,68.035717 123.59822,67.279762"
       id="path1789" />
  </g>
</svg>
