<?xml version="1.0" encoding="UTF-8" standalone="no"?>
<svg
   xmlns:dc="http://purl.org/dc/elements/1.1/"
   xmlns:cc="http://creativecommons.org/ns#"
   xmlns:rdf="http://www.w3.org/1999/02/22-rdf-syntax-ns#"
   xmlns:svg="http://www.w3.org/2000/svg"
   xmlns="http://www.w3.org/2000/svg"
   xmlns:sodipodi="http://sodipodi.sourceforge.net/DTD/sodipodi-0.dtd"
   xmlns:inkscape="http://www.inkscape.org/namespaces/inkscape"
   width="148mm"
   height="380mm"
   viewBox="0 0 148 380"
   version="1.1"
   id="svg8"
   inkscape:version="1.0.1 (3bc2e813f5, 2020-09-07)"
   sodipodi:docname="add_node.svg">
  <defs
     id="defs2">
    <marker
       style="overflow:visible"
       id="marker3325"
       refX="0"
       refY="0"
       orient="auto"
       inkscape:stockid="Arrow1Mend"
       inkscape:isstock="true">
      <path
         transform="matrix(-0.4,0,0,-0.4,-4,0)"
         style="fill:#000000;fill-opacity:1;fill-rule:evenodd;stroke:#000000;stroke-width:1pt;stroke-opacity:1"
         d="M 0,0 5,-5 -12.5,0 5,5 Z"
         id="path3323" />
    </marker>
    <marker
       style="overflow:visible"
       id="marker3315"
       refX="0"
       refY="0"
       orient="auto"
       inkscape:stockid="Arrow1Mend"
       inkscape:isstock="true">
      <path
         transform="matrix(-0.4,0,0,-0.4,-4,0)"
         style="fill:#000000;fill-opacity:1;fill-rule:evenodd;stroke:#000000;stroke-width:1pt;stroke-opacity:1"
         d="M 0,0 5,-5 -12.5,0 5,5 Z"
         id="path3313" />
    </marker>
    <marker
       style="overflow:visible"
       id="marker3305"
       refX="0"
       refY="0"
       orient="auto"
       inkscape:stockid="Arrow1Mend"
       inkscape:isstock="true">
      <path
         transform="matrix(-0.4,0,0,-0.4,-4,0)"
         style="fill:#000000;fill-opacity:1;fill-rule:evenodd;stroke:#000000;stroke-width:1pt;stroke-opacity:1"
         d="M 0,0 5,-5 -12.5,0 5,5 Z"
         id="path3303" />
    </marker>
    <marker
       style="overflow:visible"
       id="marker3295"
       refX="0"
       refY="0"
       orient="auto"
       inkscape:stockid="Arrow1Mend"
       inkscape:isstock="true">
      <path
         transform="matrix(-0.4,0,0,-0.4,-4,0)"
         style="fill:#000000;fill-opacity:1;fill-rule:evenodd;stroke:#000000;stroke-width:1pt;stroke-opacity:1"
         d="M 0,0 5,-5 -12.5,0 5,5 Z"
         id="path3293" />
    </marker>
    <marker
       style="overflow:visible"
       id="marker3285"
       refX="0"
       refY="0"
       orient="auto"
       inkscape:stockid="Arrow1Mend"
       inkscape:isstock="true">
      <path
         transform="matrix(-0.4,0,0,-0.4,-4,0)"
         style="fill:#000000;fill-opacity:1;fill-rule:evenodd;stroke:#000000;stroke-width:1pt;stroke-opacity:1"
         d="M 0,0 5,-5 -12.5,0 5,5 Z"
         id="path3283" />
    </marker>
    <marker
       style="overflow:visible"
       id="marker3275"
       refX="0"
       refY="0"
       orient="auto"
       inkscape:stockid="Arrow1Mend"
       inkscape:isstock="true">
      <path
         transform="matrix(-0.4,0,0,-0.4,-4,0)"
         style="fill:#000000;fill-opacity:1;fill-rule:evenodd;stroke:#000000;stroke-width:1pt;stroke-opacity:1"
         d="M 0,0 5,-5 -12.5,0 5,5 Z"
         id="path3273" />
    </marker>
    <marker
       style="overflow:visible"
       id="marker3265"
       refX="0"
       refY="0"
       orient="auto"
       inkscape:stockid="Arrow1Mend"
       inkscape:isstock="true">
      <path
         transform="matrix(-0.4,0,0,-0.4,-4,0)"
         style="fill:#000000;fill-opacity:1;fill-rule:evenodd;stroke:#000000;stroke-width:1pt;stroke-opacity:1"
         d="M 0,0 5,-5 -12.5,0 5,5 Z"
         id="path3263" />
    </marker>
    <marker
       style="overflow:visible"
       id="marker3255"
       refX="0"
       refY="0"
       orient="auto"
       inkscape:stockid="Arrow1Mend"
       inkscape:isstock="true">
      <path
         transform="matrix(-0.4,0,0,-0.4,-4,0)"
         style="fill:#000000;fill-opacity:1;fill-rule:evenodd;stroke:#000000;stroke-width:1pt;stroke-opacity:1"
         d="M 0,0 5,-5 -12.5,0 5,5 Z"
         id="path3253" />
    </marker>
    <marker
       style="overflow:visible"
       id="marker3245"
       refX="0"
       refY="0"
       orient="auto"
       inkscape:stockid="Arrow1Mend"
       inkscape:isstock="true">
      <path
         transform="matrix(-0.4,0,0,-0.4,-4,0)"
         style="fill:#000000;fill-opacity:1;fill-rule:evenodd;stroke:#000000;stroke-width:1pt;stroke-opacity:1"
         d="M 0,0 5,-5 -12.5,0 5,5 Z"
         id="path3243" />
    </marker>
    <marker
       style="overflow:visible"
       id="marker3235"
       refX="0"
       refY="0"
       orient="auto"
       inkscape:stockid="Arrow1Mend"
       inkscape:isstock="true">
      <path
         transform="matrix(-0.4,0,0,-0.4,-4,0)"
         style="fill:#000000;fill-opacity:1;fill-rule:evenodd;stroke:#000000;stroke-width:1pt;stroke-opacity:1"
         d="M 0,0 5,-5 -12.5,0 5,5 Z"
         id="path3233" />
    </marker>
    <marker
       style="overflow:visible"
       id="marker2707"
       refX="0"
       refY="0"
       orient="auto"
       inkscape:stockid="Arrow1Mend"
       inkscape:isstock="true"
       inkscape:collect="always">
      <path
         transform="matrix(-0.4,0,0,-0.4,-4,0)"
         style="fill:#000000;fill-opacity:1;fill-rule:evenodd;stroke:#000000;stroke-width:1pt;stroke-opacity:1"
         d="M 0,0 5,-5 -12.5,0 5,5 Z"
         id="path2705" />
    </marker>
    <marker
       style="overflow:visible"
       id="marker2697"
       refX="0"
       refY="0"
       orient="auto"
       inkscape:stockid="Arrow1Mend"
       inkscape:isstock="true"
       inkscape:collect="always">
      <path
         transform="matrix(-0.4,0,0,-0.4,-4,0)"
         style="fill:#000000;fill-opacity:1;fill-rule:evenodd;stroke:#000000;stroke-width:1pt;stroke-opacity:1"
         d="M 0,0 5,-5 -12.5,0 5,5 Z"
         id="path2695" />
    </marker>
    <marker
       style="overflow:visible"
       id="marker2687"
       refX="0"
       refY="0"
       orient="auto"
       inkscape:stockid="Arrow1Mend"
       inkscape:isstock="true"
       inkscape:collect="always">
      <path
         transform="matrix(-0.4,0,0,-0.4,-4,0)"
         style="fill:#000000;fill-opacity:1;fill-rule:evenodd;stroke:#000000;stroke-width:1pt;stroke-opacity:1"
         d="M 0,0 5,-5 -12.5,0 5,5 Z"
         id="path2685" />
    </marker>
    <marker
       style="overflow:visible"
       id="marker2677"
       refX="0"
       refY="0"
       orient="auto"
       inkscape:stockid="Arrow1Mend"
       inkscape:isstock="true"
       inkscape:collect="always">
      <path
         transform="matrix(-0.4,0,0,-0.4,-4,0)"
         style="fill:#000000;fill-opacity:1;fill-rule:evenodd;stroke:#000000;stroke-width:1pt;stroke-opacity:1"
         d="M 0,0 5,-5 -12.5,0 5,5 Z"
         id="path2675" />
    </marker>
    <marker
       style="overflow:visible"
       id="marker2667"
       refX="0"
       refY="0"
       orient="auto"
       inkscape:stockid="Arrow1Mend"
       inkscape:isstock="true"
       inkscape:collect="always">
      <path
         transform="matrix(-0.4,0,0,-0.4,-4,0)"
         style="fill:#000000;fill-opacity:1;fill-rule:evenodd;stroke:#000000;stroke-width:1pt;stroke-opacity:1"
         d="M 0,0 5,-5 -12.5,0 5,5 Z"
         id="path2665" />
    </marker>
    <marker
       style="overflow:visible"
       id="marker2657"
       refX="0"
       refY="0"
       orient="auto"
       inkscape:stockid="Arrow1Mend"
       inkscape:isstock="true"
       inkscape:collect="always">
      <path
         transform="matrix(-0.4,0,0,-0.4,-4,0)"
         style="fill:#000000;fill-opacity:1;fill-rule:evenodd;stroke:#000000;stroke-width:1pt;stroke-opacity:1"
         d="M 0,0 5,-5 -12.5,0 5,5 Z"
         id="path2655" />
    </marker>
    <marker
       style="overflow:visible"
       id="marker2647"
       refX="0"
       refY="0"
       orient="auto"
       inkscape:stockid="Arrow1Mend"
       inkscape:isstock="true"
       inkscape:collect="always">
      <path
         transform="matrix(-0.4,0,0,-0.4,-4,0)"
         style="fill:#000000;fill-opacity:1;fill-rule:evenodd;stroke:#000000;stroke-width:1pt;stroke-opacity:1"
         d="M 0,0 5,-5 -12.5,0 5,5 Z"
         id="path2645" />
    </marker>
    <marker
       style="overflow:visible"
       id="marker2637"
       refX="0"
       refY="0"
       orient="auto"
       inkscape:stockid="Arrow1Mend"
       inkscape:isstock="true"
       inkscape:collect="always">
      <path
         transform="matrix(-0.4,0,0,-0.4,-4,0)"
         style="fill:#000000;fill-opacity:1;fill-rule:evenodd;stroke:#000000;stroke-width:1pt;stroke-opacity:1"
         d="M 0,0 5,-5 -12.5,0 5,5 Z"
         id="path2635" />
    </marker>
    <marker
       style="overflow:visible"
       id="marker2627"
       refX="0"
       refY="0"
       orient="auto"
       inkscape:stockid="Arrow1Mend"
       inkscape:isstock="true"
       inkscape:collect="always">
      <path
         transform="matrix(-0.4,0,0,-0.4,-4,0)"
         style="fill:#000000;fill-opacity:1;fill-rule:evenodd;stroke:#000000;stroke-width:1pt;stroke-opacity:1"
         d="M 0,0 5,-5 -12.5,0 5,5 Z"
         id="path2625" />
    </marker>
    <marker
       style="overflow:visible"
       id="marker2617"
       refX="0"
       refY="0"
       orient="auto"
       inkscape:stockid="Arrow1Mend"
       inkscape:isstock="true"
       inkscape:collect="always">
      <path
         transform="matrix(-0.4,0,0,-0.4,-4,0)"
         style="fill:#000000;fill-opacity:1;fill-rule:evenodd;stroke:#000000;stroke-width:1pt;stroke-opacity:1"
         d="M 0,0 5,-5 -12.5,0 5,5 Z"
         id="path2615" />
    </marker>
    <marker
       style="overflow:visible"
       id="marker1851"
       refX="0"
       refY="0"
       orient="auto"
       inkscape:stockid="Arrow1Mend"
       inkscape:isstock="true"
       inkscape:collect="always">
      <path
         transform="matrix(-0.4,0,0,-0.4,-4,0)"
         style="fill:#000000;fill-opacity:1;fill-rule:evenodd;stroke:#000000;stroke-width:1pt;stroke-opacity:1"
         d="M 0,0 5,-5 -12.5,0 5,5 Z"
         id="path1849" />
    </marker>
    <marker
       style="overflow:visible"
       id="marker1841"
       refX="0"
       refY="0"
       orient="auto"
       inkscape:stockid="Arrow1Mend"
       inkscape:isstock="true"
       inkscape:collect="always">
      <path
         transform="matrix(-0.4,0,0,-0.4,-4,0)"
         style="fill:#000000;fill-opacity:1;fill-rule:evenodd;stroke:#000000;stroke-width:1pt;stroke-opacity:1"
         d="M 0,0 5,-5 -12.5,0 5,5 Z"
         id="path1839" />
    </marker>
    <marker
       style="overflow:visible"
       id="marker1831"
       refX="0"
       refY="0"
       orient="auto"
       inkscape:stockid="Arrow1Mend"
       inkscape:isstock="true"
       inkscape:collect="always">
      <path
         transform="matrix(-0.4,0,0,-0.4,-4,0)"
         style="fill:#000000;fill-opacity:1;fill-rule:evenodd;stroke:#000000;stroke-width:1pt;stroke-opacity:1"
         d="M 0,0 5,-5 -12.5,0 5,5 Z"
         id="path1829" />
    </marker>
    <marker
       style="overflow:visible"
       id="marker1821"
       refX="0"
       refY="0"
       orient="auto"
       inkscape:stockid="Arrow1Mend"
       inkscape:isstock="true"
       inkscape:collect="always">
      <path
         transform="matrix(-0.4,0,0,-0.4,-4,0)"
         style="fill:#000000;fill-opacity:1;fill-rule:evenodd;stroke:#000000;stroke-width:1pt;stroke-opacity:1"
         d="M 0,0 5,-5 -12.5,0 5,5 Z"
         id="path1819" />
    </marker>
    <marker
       style="overflow:visible"
       id="marker1811"
       refX="0"
       refY="0"
       orient="auto"
       inkscape:stockid="Arrow1Mend"
       inkscape:isstock="true"
       inkscape:collect="always">
      <path
         transform="matrix(-0.4,0,0,-0.4,-4,0)"
         style="fill:#000000;fill-opacity:1;fill-rule:evenodd;stroke:#000000;stroke-width:1pt;stroke-opacity:1"
         d="M 0,0 5,-5 -12.5,0 5,5 Z"
         id="path1809" />
    </marker>
    <marker
       style="overflow:visible"
       id="marker1801"
       refX="0"
       refY="0"
       orient="auto"
       inkscape:stockid="Arrow1Mend"
       inkscape:isstock="true"
       inkscape:collect="always">
      <path
         transform="matrix(-0.4,0,0,-0.4,-4,0)"
         style="fill:#000000;fill-opacity:1;fill-rule:evenodd;stroke:#000000;stroke-width:1pt;stroke-opacity:1"
         d="M 0,0 5,-5 -12.5,0 5,5 Z"
         id="path1799" />
    </marker>
    <marker
       style="overflow:visible"
       id="marker1791"
       refX="0"
       refY="0"
       orient="auto"
       inkscape:stockid="Arrow1Mend"
       inkscape:isstock="true"
       inkscape:collect="always">
      <path
         transform="matrix(-0.4,0,0,-0.4,-4,0)"
         style="fill:#000000;fill-opacity:1;fill-rule:evenodd;stroke:#000000;stroke-width:1pt;stroke-opacity:1"
         d="M 0,0 5,-5 -12.5,0 5,5 Z"
         id="path1789" />
    </marker>
    <marker
       style="overflow:visible"
       id="marker1781"
       refX="0"
       refY="0"
       orient="auto"
       inkscape:stockid="Arrow1Mend"
       inkscape:isstock="true"
       inkscape:collect="always">
      <path
         transform="matrix(-0.4,0,0,-0.4,-4,0)"
         style="fill:#000000;fill-opacity:1;fill-rule:evenodd;stroke:#000000;stroke-width:1pt;stroke-opacity:1"
         d="M 0,0 5,-5 -12.5,0 5,5 Z"
         id="path1779" />
    </marker>
    <marker
       style="overflow:visible"
       id="marker1771"
       refX="0"
       refY="0"
       orient="auto"
       inkscape:stockid="Arrow1Mend"
       inkscape:isstock="true"
       inkscape:collect="always">
      <path
         transform="matrix(-0.4,0,0,-0.4,-4,0)"
         style="fill:#000000;fill-opacity:1;fill-rule:evenodd;stroke:#000000;stroke-width:1pt;stroke-opacity:1"
         d="M 0,0 5,-5 -12.5,0 5,5 Z"
         id="path1769" />
    </marker>
    <marker
       style="overflow:visible"
       id="marker1761"
       refX="0"
       refY="0"
       orient="auto"
       inkscape:stockid="Arrow1Mend"
       inkscape:isstock="true"
       inkscape:collect="always">
      <path
         transform="matrix(-0.4,0,0,-0.4,-4,0)"
         style="fill:#000000;fill-opacity:1;fill-rule:evenodd;stroke:#000000;stroke-width:1pt;stroke-opacity:1"
         d="M 0,0 5,-5 -12.5,0 5,5 Z"
         id="path1759" />
    </marker>
    <marker
       style="overflow:visible"
       id="marker2419"
       refX="0"
       refY="0"
       orient="auto"
       inkscape:stockid="Arrow1Mend"
       inkscape:isstock="true">
      <path
         transform="matrix(-0.4,0,0,-0.4,-4,0)"
         style="fill:#000000;fill-opacity:1;fill-rule:evenodd;stroke:#000000;stroke-width:1pt;stroke-opacity:1"
         d="M 0,0 5,-5 -12.5,0 5,5 Z"
         id="path2417" />
    </marker>
    <marker
       style="overflow:visible"
       id="marker2409"
       refX="0"
       refY="0"
       orient="auto"
       inkscape:stockid="Arrow1Mend"
       inkscape:isstock="true">
      <path
         transform="matrix(-0.4,0,0,-0.4,-4,0)"
         style="fill:#000000;fill-opacity:1;fill-rule:evenodd;stroke:#000000;stroke-width:1pt;stroke-opacity:1"
         d="M 0,0 5,-5 -12.5,0 5,5 Z"
         id="path2407" />
    </marker>
    <marker
       style="overflow:visible"
       id="marker2399"
       refX="0"
       refY="0"
       orient="auto"
       inkscape:stockid="Arrow1Mend"
       inkscape:isstock="true">
      <path
         transform="matrix(-0.4,0,0,-0.4,-4,0)"
         style="fill:#000000;fill-opacity:1;fill-rule:evenodd;stroke:#000000;stroke-width:1pt;stroke-opacity:1"
         d="M 0,0 5,-5 -12.5,0 5,5 Z"
         id="path2397" />
    </marker>
    <marker
       style="overflow:visible"
       id="marker2389"
       refX="0"
       refY="0"
       orient="auto"
       inkscape:stockid="Arrow1Mend"
       inkscape:isstock="true">
      <path
         transform="matrix(-0.4,0,0,-0.4,-4,0)"
         style="fill:#000000;fill-opacity:1;fill-rule:evenodd;stroke:#000000;stroke-width:1pt;stroke-opacity:1"
         d="M 0,0 5,-5 -12.5,0 5,5 Z"
         id="path2387" />
    </marker>
    <marker
       style="overflow:visible"
       id="marker2199"
       refX="0"
       refY="0"
       orient="auto"
       inkscape:stockid="Arrow1Mend"
       inkscape:isstock="true"
       inkscape:collect="always">
      <path
         transform="matrix(-0.4,0,0,-0.4,-4,0)"
         style="fill:#000000;fill-opacity:1;fill-rule:evenodd;stroke:#000000;stroke-width:1pt;stroke-opacity:1"
         d="M 0,0 5,-5 -12.5,0 5,5 Z"
         id="path2197" />
    </marker>
    <marker
       style="overflow:visible"
       id="marker2189"
       refX="0"
       refY="0"
       orient="auto"
       inkscape:stockid="Arrow1Mend"
       inkscape:isstock="true"
       inkscape:collect="always">
      <path
         transform="matrix(-0.4,0,0,-0.4,-4,0)"
         style="fill:#000000;fill-opacity:1;fill-rule:evenodd;stroke:#000000;stroke-width:1pt;stroke-opacity:1"
         d="M 0,0 5,-5 -12.5,0 5,5 Z"
         id="path2187" />
    </marker>
    <marker
       style="overflow:visible"
       id="marker2067"
       refX="0"
       refY="0"
       orient="auto"
       inkscape:stockid="Arrow1Mend"
       inkscape:isstock="true"
       inkscape:collect="always">
      <path
         transform="matrix(-0.4,0,0,-0.4,-4,0)"
         style="fill:#000000;fill-opacity:1;fill-rule:evenodd;stroke:#000000;stroke-width:1pt;stroke-opacity:1"
         d="M 0,0 5,-5 -12.5,0 5,5 Z"
         id="path2065" />
    </marker>
    <marker
       style="overflow:visible"
       id="marker2057"
       refX="0"
       refY="0"
       orient="auto"
       inkscape:stockid="Arrow1Mend"
       inkscape:isstock="true"
       inkscape:collect="always">
      <path
         transform="matrix(-0.4,0,0,-0.4,-4,0)"
         style="fill:#000000;fill-opacity:1;fill-rule:evenodd;stroke:#000000;stroke-width:1pt;stroke-opacity:1"
         d="M 0,0 5,-5 -12.5,0 5,5 Z"
         id="path2055" />
    </marker>
    <marker
       style="overflow:visible"
       id="marker1777"
       refX="0"
       refY="0"
       orient="auto"
       inkscape:stockid="Arrow1Mend"
       inkscape:isstock="true"
       inkscape:collect="always">
      <path
         transform="matrix(-0.4,0,0,-0.4,-4,0)"
         style="fill:#000000;fill-opacity:1;fill-rule:evenodd;stroke:#000000;stroke-width:1pt;stroke-opacity:1"
         d="M 0,0 5,-5 -12.5,0 5,5 Z"
         id="path1775" />
    </marker>
    <marker
       style="overflow:visible"
       id="marker1767"
       refX="0"
       refY="0"
       orient="auto"
       inkscape:stockid="Arrow1Mend"
       inkscape:isstock="true"
       inkscape:collect="always">
      <path
         transform="matrix(-0.4,0,0,-0.4,-4,0)"
         style="fill:#000000;fill-opacity:1;fill-rule:evenodd;stroke:#000000;stroke-width:1pt;stroke-opacity:1"
         d="M 0,0 5,-5 -12.5,0 5,5 Z"
         id="path1765" />
    </marker>
    <marker
       style="overflow:visible"
       id="marker1689"
       refX="0"
       refY="0"
       orient="auto"
       inkscape:stockid="Arrow1Mend"
       inkscape:isstock="true"
       inkscape:collect="always">
      <path
         transform="matrix(-0.4,0,0,-0.4,-4,0)"
         style="fill:#000000;fill-opacity:1;fill-rule:evenodd;stroke:#000000;stroke-width:1pt;stroke-opacity:1"
         d="M 0,0 5,-5 -12.5,0 5,5 Z"
         id="path1687" />
    </marker>
    <marker
       style="overflow:visible"
       id="marker1627"
       refX="0"
       refY="0"
       orient="auto"
       inkscape:stockid="Arrow1Mend"
       inkscape:isstock="true"
       inkscape:collect="always">
      <path
         transform="matrix(-0.4,0,0,-0.4,-4,0)"
         style="fill:#000000;fill-opacity:1;fill-rule:evenodd;stroke:#000000;stroke-width:1pt;stroke-opacity:1"
         d="M 0,0 5,-5 -12.5,0 5,5 Z"
         id="path1625" />
    </marker>
    <marker
       style="overflow:visible"
       id="marker1531"
       refX="0"
       refY="0"
       orient="auto"
       inkscape:stockid="Arrow1Mend"
       inkscape:isstock="true"
       inkscape:collect="always">
      <path
         transform="matrix(-0.4,0,0,-0.4,-4,0)"
         style="fill:#000000;fill-opacity:1;fill-rule:evenodd;stroke:#000000;stroke-width:1pt;stroke-opacity:1"
         d="M 0,0 5,-5 -12.5,0 5,5 Z"
         id="path1529" />
    </marker>
    <marker
       style="overflow:visible"
       id="Arrow1Mend"
       refX="0"
       refY="0"
       orient="auto"
       inkscape:stockid="Arrow1Mend"
       inkscape:isstock="true"
       inkscape:collect="always">
      <path
         transform="matrix(-0.4,0,0,-0.4,-4,0)"
         style="fill:#000000;fill-opacity:1;fill-rule:evenodd;stroke:#000000;stroke-width:1pt;stroke-opacity:1"
         d="M 0,0 5,-5 -12.5,0 5,5 Z"
         id="path1240" />
    </marker>
    <marker
       style="overflow:visible"
       id="Arrow1Lstart"
       refX="0"
       refY="0"
       orient="auto"
       inkscape:stockid="Arrow1Lstart"
       inkscape:isstock="true">
      <path
         transform="matrix(0.8,0,0,0.8,10,0)"
         style="fill:#000000;fill-opacity:1;fill-rule:evenodd;stroke:#000000;stroke-width:1pt;stroke-opacity:1"
         d="M 0,0 5,-5 -12.5,0 5,5 Z"
         id="path1231" />
    </marker>
  </defs>
  <sodipodi:namedview
     id="base"
     pagecolor="#ffffff"
     bordercolor="#666666"
     borderopacity="1.0"
     inkscape:pageopacity="0.0"
     inkscape:pageshadow="2"
     inkscape:zoom="1.1231395"
     inkscape:cx="220.47578"
     inkscape:cy="1044.0846"
     inkscape:document-units="mm"
     inkscape:current-layer="g3231"
     inkscape:document-rotation="0"
     showgrid="false"
     units="mm"
     inkscape:window-width="1842"
     inkscape:window-height="1051"
     inkscape:window-x="-9"
     inkscape:window-y="-9"
     inkscape:window-maximized="1"
     height="420mm" />
  <metadata
     id="metadata5">
    <rdf:RDF>
      <cc:Work
         rdf:about="">
        <dc:format>image/svg+xml</dc:format>
        <dc:type
           rdf:resource="http://purl.org/dc/dcmitype/StillImage" />
        <dc:title />
      </cc:Work>
    </rdf:RDF>
  </metadata>
  <g
     inkscape:label="图层 1"
     inkscape:groupmode="layer"
     id="layer1">
    <g
       id="g2866"
       transform="translate(9.1009755,-3.8610197)">
      <g
         id="g1433">
        <circle
           style="opacity:0.99;fill:none;stroke:#000000;stroke-width:0.3;stroke-linecap:square;stroke-opacity:0.982301"
           id="path835"
           cx="74.9851"
           cy="18.322514"
           r="3.6322165" />
        <text
           xml:space="preserve"
           style="font-style:normal;font-weight:normal;font-size:3.94215px;line-height:1.25;font-family:sans-serif;fill:#000000;fill-opacity:1;stroke:none;stroke-width:0.0985541"
           x="73.835953"
           y="19.813334"
           id="text839"><tspan
             sodipodi:role="line"
             id="tspan837"
             x="73.835953"
             y="19.813334"
             style="stroke-width:0.0985541">9</tspan></text>
      </g>
      <g
         id="g1126">
        <circle
           style="opacity:0.99;fill:none;stroke:#000000;stroke-width:0.3;stroke-linecap:square;stroke-opacity:0.982301"
           id="circle846"
           cx="45.443069"
           cy="38.474586"
           r="3.6322165" />
        <text
           xml:space="preserve"
           style="font-style:normal;font-weight:normal;font-size:3.94215px;line-height:1.25;font-family:sans-serif;fill:#000000;fill-opacity:1;stroke:none;stroke-width:0.0985541"
           x="43.011948"
           y="39.973103"
           id="text850"><tspan
             sodipodi:role="line"
             id="tspan848"
             x="43.011948"
             y="39.973103"
             style="stroke-width:0.0985541">10</tspan></text>
      </g>
      <g
         id="g1131"
         transform="translate(1.0583333)">
        <circle
           style="opacity:0.99;fill:none;stroke:#000000;stroke-width:0.3;stroke-linecap:square;stroke-opacity:0.982301"
           id="circle854"
           cx="103.8814"
           cy="38.474586"
           r="3.6322165" />
        <text
           xml:space="preserve"
           style="font-style:normal;font-weight:normal;font-size:3.94215px;line-height:1.25;font-family:sans-serif;fill:#000000;fill-opacity:1;stroke:none;stroke-width:0.0985541"
           x="101.50706"
           y="39.965408"
           id="text858"><tspan
             sodipodi:role="line"
             id="tspan856"
             x="101.50706"
             y="39.965408"
             style="stroke-width:0.0985541">15</tspan></text>
      </g>
      <g
         id="g1139"
         transform="translate(-16.950344,19.842667)">
        <circle
           style="opacity:0.99;fill:none;stroke:#000000;stroke-width:0.3;stroke-linecap:square;stroke-opacity:0.982301"
           id="circle1133"
           cx="45.443069"
           cy="38.474586"
           r="3.6322165" />
        <text
           xml:space="preserve"
           style="font-style:normal;font-weight:normal;font-size:3.94215px;line-height:1.25;font-family:sans-serif;fill:#000000;fill-opacity:1;stroke:none;stroke-width:0.0985541"
           x="43.011948"
           y="39.973103"
           id="text1137"><tspan
             sodipodi:role="line"
             id="tspan1135"
             x="43.011948"
             y="39.973103"
             style="stroke-width:0.0985541">12</tspan></text>
      </g>
      <g
         id="g1147"
         transform="translate(14.780042,19.842667)">
        <circle
           style="opacity:0.99;fill:none;stroke:#000000;stroke-width:0.3;stroke-linecap:square;stroke-opacity:0.982301"
           id="circle1141"
           cx="45.443069"
           cy="38.474586"
           r="3.6322165" />
        <text
           xml:space="preserve"
           style="font-style:normal;font-weight:normal;font-size:3.94215px;line-height:1.25;font-family:sans-serif;fill:#000000;fill-opacity:1;stroke:none;stroke-width:0.0985541"
           x="43.011948"
           y="39.973103"
           id="text1145"><tspan
             sodipodi:role="line"
             id="tspan1143"
             x="43.011948"
             y="39.973103"
             style="stroke-width:0.0985541">13</tspan></text>
      </g>
      <g
         id="g1155"
         transform="translate(44.420577,19.842667)">
        <circle
           style="opacity:0.99;fill:none;stroke:#000000;stroke-width:0.3;stroke-linecap:square;stroke-opacity:0.982301"
           id="circle1149"
           cx="45.443069"
           cy="38.474586"
           r="3.6322165" />
        <text
           xml:space="preserve"
           style="font-style:normal;font-weight:normal;font-size:3.94215px;line-height:1.25;font-family:sans-serif;fill:#000000;fill-opacity:1;stroke:none;stroke-width:0.0985541"
           x="43.011948"
           y="39.973103"
           id="text1153"><tspan
             sodipodi:role="line"
             id="tspan1151"
             x="43.011948"
             y="39.973103"
             style="stroke-width:0.0985541">17</tspan></text>
      </g>
      <g
         id="g1163"
         transform="translate(75.092629,19.842667)">
        <circle
           style="opacity:0.99;fill:none;stroke:#000000;stroke-width:0.3;stroke-linecap:square;stroke-opacity:0.982301"
           id="circle1157"
           cx="45.443069"
           cy="38.474586"
           r="3.6322165" />
        <text
           xml:space="preserve"
           style="font-style:normal;font-weight:normal;font-size:3.94215px;line-height:1.25;font-family:sans-serif;fill:#000000;fill-opacity:1;stroke:none;stroke-width:0.0985541"
           x="43.011948"
           y="39.973103"
           id="text1161"><tspan
             sodipodi:role="line"
             id="tspan1159"
             x="43.011948"
             y="39.973103"
             style="stroke-width:0.0985541">19</tspan></text>
      </g>
      <g
         id="g1171"
         transform="translate(-32.447802,42.592384)">
        <circle
           style="opacity:0.99;fill:none;stroke:#000000;stroke-width:0.3;stroke-linecap:square;stroke-opacity:0.982301"
           id="circle1165"
           cx="45.443069"
           cy="38.474586"
           r="3.6322165" />
        <text
           xml:space="preserve"
           style="font-style:normal;font-weight:normal;font-size:3.94215px;line-height:1.25;font-family:sans-serif;fill:#000000;fill-opacity:1;stroke:none;stroke-width:0.0985541"
           x="43.011948"
           y="39.973103"
           id="text1169"><tspan
             sodipodi:role="line"
             id="tspan1167"
             x="43.011948"
             y="39.973103"
             style="stroke-width:0.0985541">16</tspan></text>
      </g>
      <g
         id="g1179"
         transform="translate(-15.40521,42.730276)">
        <circle
           style="opacity:0.99;fill:none;stroke:#000000;stroke-width:0.3;stroke-linecap:square;stroke-opacity:0.982301"
           id="circle1173"
           cx="45.443069"
           cy="38.474586"
           r="3.6322165" />
        <text
           xml:space="preserve"
           style="font-style:normal;font-weight:normal;font-size:3.94215px;line-height:1.25;font-family:sans-serif;fill:#000000;fill-opacity:1;stroke:none;stroke-width:0.0985541"
           x="43.011948"
           y="39.973103"
           id="text1177"><tspan
             sodipodi:role="line"
             id="tspan1175"
             x="43.011948"
             y="39.973103"
             style="stroke-width:0.0985541">15</tspan></text>
      </g>
      <g
         id="g1187"
         transform="translate(1.6373767,42.730276)">
        <circle
           style="opacity:0.99;fill:none;stroke:#000000;stroke-width:0.3;stroke-linecap:square;stroke-opacity:0.982301"
           id="circle1181"
           cx="45.443069"
           cy="38.474586"
           r="3.6322165" />
        <text
           xml:space="preserve"
           style="font-style:normal;font-weight:normal;font-size:3.94215px;line-height:1.25;font-family:sans-serif;fill:#000000;fill-opacity:1;stroke:none;stroke-width:0.0985541"
           x="43.011948"
           y="39.973103"
           id="text1185"><tspan
             sodipodi:role="line"
             id="tspan1183"
             x="43.011948"
             y="39.973103"
             style="stroke-width:0.0985541">14</tspan></text>
      </g>
      <path
         style="fill:none;stroke:#000000;stroke-width:0.257538;stroke-linecap:butt;stroke-linejoin:miter;stroke-miterlimit:4;stroke-dasharray:none;stroke-opacity:1;marker-end:url(#Arrow1Mend)"
         d="M 72.03788,20.977454 48.934925,36.004547"
         id="path1229" />
      <path
         style="fill:none;stroke:#000000;stroke-width:0.265;stroke-linecap:butt;stroke-linejoin:miter;stroke-miterlimit:4;stroke-dasharray:none;stroke-opacity:1;marker-end:url(#marker1531)"
         d="M 77.660004,20.806655 102.68194,35.496954"
         id="path1527" />
      <path
         style="fill:none;stroke:#000000;stroke-width:0.176237;stroke-linecap:butt;stroke-linejoin:miter;stroke-miterlimit:4;stroke-dasharray:none;stroke-opacity:1;marker-end:url(#marker1627)"
         d="M 42.1664,40.608151 30.841475,54.963607"
         id="path1623" />
      <path
         style="fill:none;stroke:#000000;stroke-width:0.176237;stroke-linecap:butt;stroke-linejoin:miter;stroke-miterlimit:4;stroke-dasharray:none;stroke-opacity:1;marker-end:url(#marker1689)"
         d="M 48.614484,40.123856 59.939409,54.479312"
         id="path1685" />
      <path
         style="fill:none;stroke:#000000;stroke-width:0.176237;stroke-linecap:butt;stroke-linejoin:miter;stroke-miterlimit:4;stroke-dasharray:none;stroke-opacity:1;marker-end:url(#marker1777)"
         d="M 101.89618,40.285287 90.571261,54.640743"
         id="path1761" />
      <path
         style="fill:none;stroke:#000000;stroke-width:0.176237;stroke-linecap:butt;stroke-linejoin:miter;stroke-miterlimit:4;stroke-dasharray:none;stroke-opacity:1;marker-end:url(#marker1767)"
         d="M 108.34427,39.962424 119.66919,54.31788"
         id="path1763" />
      <path
         style="fill:none;stroke:#000000;stroke-width:0.176237;stroke-linecap:butt;stroke-linejoin:miter;stroke-miterlimit:4;stroke-dasharray:none;stroke-opacity:1;marker-end:url(#marker2067)"
         d="M 24.893192,62.562883 13.568267,76.918339"
         id="path2051" />
      <path
         style="fill:none;stroke:#000000;stroke-width:0.176237;stroke-linecap:butt;stroke-linejoin:miter;stroke-miterlimit:4;stroke-dasharray:none;stroke-opacity:1;marker-end:url(#marker2057)"
         d="m 28.344277,62.077486 1.782985,14.516638"
         id="path2053" />
      <path
         style="fill:none;stroke:#000000;stroke-width:0.176237;stroke-linecap:butt;stroke-linejoin:miter;stroke-miterlimit:4;stroke-dasharray:none;stroke-opacity:1;marker-end:url(#marker2199)"
         d="M 58.471017,62.078587 47.146092,76.434043"
         id="path2183" />
      <path
         style="fill:none;stroke:#000000;stroke-width:0.176237;stroke-linecap:butt;stroke-linejoin:miter;stroke-miterlimit:4;stroke-dasharray:none;stroke-opacity:1;marker-end:url(#marker2189)"
         d="m 61.922102,61.59319 1.782985,14.516638"
         id="path2185" />
      <g
         id="g1515"
         transform="translate(0.55157427,-13.927249)">
        <circle
           style="opacity:0.99;fill:#ff5555;stroke:#000000;stroke-width:0.3;stroke-linecap:square;stroke-opacity:0.982301"
           id="circle1435"
           cx="64.367294"
           cy="95.132111"
           r="3.6322165" />
        <text
           xml:space="preserve"
           style="font-style:normal;font-weight:normal;font-size:3.94215px;line-height:1.25;font-family:sans-serif;fill:#000000;fill-opacity:1;stroke:none;stroke-width:0.0985541"
           x="63.218147"
           y="96.622932"
           id="text1439"><tspan
             sodipodi:role="line"
             id="tspan1437"
             x="63.218147"
             y="96.622932"
             style="stroke-width:0.0985541">8</tspan></text>
      </g>
      <text
         xml:space="preserve"
         style="font-style:normal;font-weight:normal;font-size:3.7851px;line-height:1.25;font-family:sans-serif;fill:#000000;fill-opacity:1;stroke:none;stroke-width:0.264583"
         x="70.670944"
         y="76.054268"
         id="text1445"><tspan
           sodipodi:role="line"
           x="70.670944"
           y="76.054268"
           style="stroke-width:0.264583"
           id="tspan1517">1.add a new node</tspan><tspan
           sodipodi:role="line"
           x="70.670944"
           y="80.785645"
           style="stroke-width:0.264583"
           id="tspan1521">at the last position </tspan></text>
    </g>
    <g
       id="g1757"
       transform="translate(12.416162,84.670846)">
      <g
         id="g1649">
        <circle
           style="opacity:0.99;fill:none;stroke:#000000;stroke-width:0.3;stroke-linecap:square;stroke-opacity:0.982301"
           id="circle1643"
           cx="74.9851"
           cy="18.322514"
           r="3.6322165" />
        <text
           xml:space="preserve"
           style="font-style:normal;font-weight:normal;font-size:3.94215px;line-height:1.25;font-family:sans-serif;fill:#000000;fill-opacity:1;stroke:none;stroke-width:0.0985541"
           x="73.835953"
           y="19.813334"
           id="text1647"><tspan
             sodipodi:role="line"
             id="tspan1645"
             x="73.835953"
             y="19.813334"
             style="stroke-width:0.0985541">9</tspan></text>
      </g>
      <g
         id="g1657">
        <circle
           style="opacity:0.99;fill:none;stroke:#000000;stroke-width:0.3;stroke-linecap:square;stroke-opacity:0.982301"
           id="circle1651"
           cx="45.443069"
           cy="38.474586"
           r="3.6322165" />
        <text
           xml:space="preserve"
           style="font-style:normal;font-weight:normal;font-size:3.94215px;line-height:1.25;font-family:sans-serif;fill:#000000;fill-opacity:1;stroke:none;stroke-width:0.0985541"
           x="43.011948"
           y="39.973103"
           id="text1655"><tspan
             sodipodi:role="line"
             id="tspan1653"
             x="43.011948"
             y="39.973103"
             style="stroke-width:0.0985541">10</tspan></text>
      </g>
      <g
         id="g1665"
         transform="translate(1.0583333)">
        <circle
           style="opacity:0.99;fill:none;stroke:#000000;stroke-width:0.3;stroke-linecap:square;stroke-opacity:0.982301"
           id="circle1659"
           cx="103.8814"
           cy="38.474586"
           r="3.6322165" />
        <text
           xml:space="preserve"
           style="font-style:normal;font-weight:normal;font-size:3.94215px;line-height:1.25;font-family:sans-serif;fill:#000000;fill-opacity:1;stroke:none;stroke-width:0.0985541"
           x="101.50706"
           y="39.965408"
           id="text1663"><tspan
             sodipodi:role="line"
             id="tspan1661"
             x="101.50706"
             y="39.965408"
             style="stroke-width:0.0985541">15</tspan></text>
      </g>
      <g
         id="g1673"
         transform="translate(-16.950344,19.975836)">
        <circle
           style="opacity:0.99;fill:none;stroke:#000000;stroke-width:0.3;stroke-linecap:square;stroke-opacity:0.982301"
           id="circle1667"
           cx="45.443069"
           cy="38.474586"
           r="3.6322165" />
        <text
           xml:space="preserve"
           style="font-style:normal;font-weight:normal;font-size:3.94215px;line-height:1.25;font-family:sans-serif;fill:#000000;fill-opacity:1;stroke:none;stroke-width:0.0985541"
           x="43.011948"
           y="39.973103"
           id="text1671"><tspan
             sodipodi:role="line"
             id="tspan1669"
             x="43.011948"
             y="39.973103"
             style="stroke-width:0.0985541">12</tspan></text>
      </g>
      <g
         id="g1681"
         transform="translate(21.020393,42.548354)">
        <circle
           style="opacity:0.99;fill:none;stroke:#000000;stroke-width:0.3;stroke-linecap:square;stroke-opacity:0.982301"
           id="circle1675"
           cx="45.443069"
           cy="38.474586"
           r="3.6322165" />
        <text
           xml:space="preserve"
           style="font-style:normal;font-weight:normal;font-size:3.94215px;line-height:1.25;font-family:sans-serif;fill:#000000;fill-opacity:1;stroke:none;stroke-width:0.0985541"
           x="43.011948"
           y="39.973103"
           id="text1679"><tspan
             sodipodi:role="line"
             id="tspan1677"
             x="43.011948"
             y="39.973103"
             style="stroke-width:0.0985541">13</tspan></text>
      </g>
      <g
         id="g1689"
         transform="translate(44.420577,19.975836)">
        <circle
           style="opacity:0.99;fill:none;stroke:#000000;stroke-width:0.3;stroke-linecap:square;stroke-opacity:0.982301"
           id="circle1683"
           cx="45.443069"
           cy="38.474586"
           r="3.6322165" />
        <text
           xml:space="preserve"
           style="font-style:normal;font-weight:normal;font-size:3.94215px;line-height:1.25;font-family:sans-serif;fill:#000000;fill-opacity:1;stroke:none;stroke-width:0.0985541"
           x="43.011948"
           y="39.973103"
           id="text1687"><tspan
             sodipodi:role="line"
             id="tspan1685"
             x="43.011948"
             y="39.973103"
             style="stroke-width:0.0985541">17</tspan></text>
      </g>
      <g
         id="g1697"
         transform="translate(75.092629,19.975836)">
        <circle
           style="opacity:0.99;fill:none;stroke:#000000;stroke-width:0.3;stroke-linecap:square;stroke-opacity:0.982301"
           id="circle1691"
           cx="45.443069"
           cy="38.474586"
           r="3.6322165" />
        <text
           xml:space="preserve"
           style="font-style:normal;font-weight:normal;font-size:3.94215px;line-height:1.25;font-family:sans-serif;fill:#000000;fill-opacity:1;stroke:none;stroke-width:0.0985541"
           x="43.011948"
           y="39.973103"
           id="text1695"><tspan
             sodipodi:role="line"
             id="tspan1693"
             x="43.011948"
             y="39.973103"
             style="stroke-width:0.0985541">19</tspan></text>
      </g>
      <g
         id="g1705"
         transform="translate(-32.447802,42.548354)">
        <circle
           style="opacity:0.99;fill:none;stroke:#000000;stroke-width:0.3;stroke-linecap:square;stroke-opacity:0.982301"
           id="circle1699"
           cx="45.443069"
           cy="38.474586"
           r="3.6322165" />
        <text
           xml:space="preserve"
           style="font-style:normal;font-weight:normal;font-size:3.94215px;line-height:1.25;font-family:sans-serif;fill:#000000;fill-opacity:1;stroke:none;stroke-width:0.0985541"
           x="43.011948"
           y="39.973103"
           id="text1703"><tspan
             sodipodi:role="line"
             id="tspan1701"
             x="43.011948"
             y="39.973103"
             style="stroke-width:0.0985541">16</tspan></text>
      </g>
      <g
         id="g1713"
         transform="translate(-15.40521,42.548354)">
        <circle
           style="opacity:0.99;fill:none;stroke:#000000;stroke-width:0.3;stroke-linecap:square;stroke-opacity:0.982301"
           id="circle1707"
           cx="45.443069"
           cy="38.474586"
           r="3.6322165" />
        <text
           xml:space="preserve"
           style="font-style:normal;font-weight:normal;font-size:3.94215px;line-height:1.25;font-family:sans-serif;fill:#000000;fill-opacity:1;stroke:none;stroke-width:0.0985541"
           x="43.011948"
           y="39.973103"
           id="text1711"><tspan
             sodipodi:role="line"
             id="tspan1709"
             x="43.011948"
             y="39.973103"
             style="stroke-width:0.0985541">15</tspan></text>
      </g>
      <g
         id="g1721"
         transform="translate(1.6373767,42.548354)">
        <circle
           style="opacity:0.99;fill:none;stroke:#000000;stroke-width:0.3;stroke-linecap:square;stroke-opacity:0.982301"
           id="circle1715"
           cx="45.443069"
           cy="38.474586"
           r="3.6322165" />
        <text
           xml:space="preserve"
           style="font-style:normal;font-weight:normal;font-size:3.94215px;line-height:1.25;font-family:sans-serif;fill:#000000;fill-opacity:1;stroke:none;stroke-width:0.0985541"
           x="43.011948"
           y="39.973103"
           id="text1719"><tspan
             sodipodi:role="line"
             id="tspan1717"
             x="43.011948"
             y="39.973103"
             style="stroke-width:0.0985541">14</tspan></text>
      </g>
      <path
         style="fill:none;stroke:#000000;stroke-width:0.257538;stroke-linecap:butt;stroke-linejoin:miter;stroke-miterlimit:4;stroke-dasharray:none;stroke-opacity:1;marker-end:url(#marker1761)"
         d="M 72.03788,20.977454 48.934925,36.004547"
         id="path1723" />
      <path
         style="fill:none;stroke:#000000;stroke-width:0.265;stroke-linecap:butt;stroke-linejoin:miter;stroke-miterlimit:4;stroke-dasharray:none;stroke-opacity:1;marker-end:url(#marker1771)"
         d="M 77.660004,20.806655 102.68194,35.496954"
         id="path1725" />
      <path
         style="fill:none;stroke:#000000;stroke-width:0.176237;stroke-linecap:butt;stroke-linejoin:miter;stroke-miterlimit:4;stroke-dasharray:none;stroke-opacity:1;marker-end:url(#marker1781)"
         d="M 42.1664,40.608151 30.841475,54.963607"
         id="path1727" />
      <path
         style="fill:none;stroke:#000000;stroke-width:0.176237;stroke-linecap:butt;stroke-linejoin:miter;stroke-miterlimit:4;stroke-dasharray:none;stroke-opacity:1;marker-end:url(#marker1791)"
         d="M 48.614484,40.123856 59.939409,54.479312"
         id="path1729" />
      <path
         style="fill:none;stroke:#000000;stroke-width:0.176237;stroke-linecap:butt;stroke-linejoin:miter;stroke-miterlimit:4;stroke-dasharray:none;stroke-opacity:1;marker-end:url(#marker1801)"
         d="M 101.89618,40.285287 90.571261,54.640743"
         id="path1731" />
      <path
         style="fill:none;stroke:#000000;stroke-width:0.176237;stroke-linecap:butt;stroke-linejoin:miter;stroke-miterlimit:4;stroke-dasharray:none;stroke-opacity:1;marker-end:url(#marker1811)"
         d="M 108.34427,39.962424 119.66919,54.31788"
         id="path1733" />
      <path
         style="fill:none;stroke:#000000;stroke-width:0.176237;stroke-linecap:butt;stroke-linejoin:miter;stroke-miterlimit:4;stroke-dasharray:none;stroke-opacity:1;marker-end:url(#marker1821)"
         d="M 24.893192,62.562883 13.568267,76.918339"
         id="path1735" />
      <path
         style="fill:none;stroke:#000000;stroke-width:0.176237;stroke-linecap:butt;stroke-linejoin:miter;stroke-miterlimit:4;stroke-dasharray:none;stroke-opacity:1;marker-end:url(#marker1831)"
         d="m 28.344277,62.077486 1.782985,14.516638"
         id="path1737" />
      <path
         style="fill:none;stroke:#000000;stroke-width:0.176237;stroke-linecap:butt;stroke-linejoin:miter;stroke-miterlimit:4;stroke-dasharray:none;stroke-opacity:1;marker-end:url(#marker1841)"
         d="M 58.471017,62.078587 47.146092,76.434043"
         id="path1739" />
      <path
         style="fill:none;stroke:#000000;stroke-width:0.176237;stroke-linecap:butt;stroke-linejoin:miter;stroke-miterlimit:4;stroke-dasharray:none;stroke-opacity:1;marker-end:url(#marker1851)"
         d="m 61.922102,61.59319 1.782985,14.516638"
         id="path1741" />
      <g
         id="g1749"
         transform="translate(-3.5436558,-36.681689)">
        <circle
           style="opacity:0.99;fill:#ff5555;stroke:#000000;stroke-width:0.3;stroke-linecap:square;stroke-opacity:0.982301"
           id="circle1743"
           cx="64.367294"
           cy="95.132111"
           r="3.6322165" />
        <text
           xml:space="preserve"
           style="font-style:normal;font-weight:normal;font-size:3.94215px;line-height:1.25;font-family:sans-serif;fill:#000000;fill-opacity:1;stroke:none;stroke-width:0.0985541"
           x="63.218147"
           y="96.622932"
           id="text1747"><tspan
             sodipodi:role="line"
             id="tspan1745"
             x="63.218147"
             y="96.622932"
             style="stroke-width:0.0985541">8</tspan></text>
      </g>
      <text
         xml:space="preserve"
         style="font-style:normal;font-weight:normal;font-size:3.7851px;line-height:1.25;font-family:sans-serif;fill:#000000;fill-opacity:1;stroke:none;stroke-width:0.264583"
         x="78.568886"
         y="77.419342"
         id="text1755"><tspan
           sodipodi:role="line"
           x="78.568886"
           y="77.419342"
           style="stroke-width:0.264583"
           id="tspan1753">2.sort the two adjacent</tspan><tspan
           sodipodi:role="line"
           x="78.568886"
           y="82.150719"
           style="stroke-width:0.264583"
           id="tspan2361">nodes </tspan></text>
      <ellipse
         style="opacity:0.99;fill:none;stroke:#000000;stroke-width:0.265;stroke-linecap:square;stroke-miterlimit:4;stroke-dasharray:0.265, 0.53;stroke-dashoffset:0;stroke-opacity:0.982301"
         id="path2423"
         cx="63.316223"
         cy="70.913734"
         rx="9.2011366"
         ry="19.566216" />
    </g>
    <g
       id="g2613"
       transform="translate(7.5270294,181.27446)">
      <g
         id="g2503">
        <circle
           style="opacity:0.99;fill:none;stroke:#000000;stroke-width:0.3;stroke-linecap:square;stroke-opacity:0.982301"
           id="circle2497"
           cx="74.9851"
           cy="18.322514"
           r="3.6322165" />
        <text
           xml:space="preserve"
           style="font-style:normal;font-weight:normal;font-size:3.94215px;line-height:1.25;font-family:sans-serif;fill:#000000;fill-opacity:1;stroke:none;stroke-width:0.0985541"
           x="73.835953"
           y="19.813334"
           id="text2501"><tspan
             sodipodi:role="line"
             id="tspan2499"
             x="73.835953"
             y="19.813334"
             style="stroke-width:0.0985541">9</tspan></text>
      </g>
      <g
         id="g2511"
         transform="translate(15.015843,19.696106)">
        <circle
           style="opacity:0.99;fill:none;stroke:#000000;stroke-width:0.3;stroke-linecap:square;stroke-opacity:0.982301"
           id="circle2505"
           cx="45.443069"
           cy="38.474586"
           r="3.6322165" />
        <text
           xml:space="preserve"
           style="font-style:normal;font-weight:normal;font-size:3.94215px;line-height:1.25;font-family:sans-serif;fill:#000000;fill-opacity:1;stroke:none;stroke-width:0.0985541"
           x="43.011948"
           y="39.973103"
           id="text2509"><tspan
             sodipodi:role="line"
             id="tspan2507"
             x="43.011948"
             y="39.973103"
             style="stroke-width:0.0985541">10</tspan></text>
      </g>
      <g
         id="g2519"
         transform="translate(1.0583333)">
        <circle
           style="opacity:0.99;fill:none;stroke:#000000;stroke-width:0.3;stroke-linecap:square;stroke-opacity:0.982301"
           id="circle2513"
           cx="103.8814"
           cy="38.474586"
           r="3.6322165" />
        <text
           xml:space="preserve"
           style="font-style:normal;font-weight:normal;font-size:3.94215px;line-height:1.25;font-family:sans-serif;fill:#000000;fill-opacity:1;stroke:none;stroke-width:0.0985541"
           x="101.50706"
           y="39.965408"
           id="text2517"><tspan
             sodipodi:role="line"
             id="tspan2515"
             x="101.50706"
             y="39.965408"
             style="stroke-width:0.0985541">15</tspan></text>
      </g>
      <g
         id="g2527"
         transform="translate(-16.950344,19.975836)">
        <circle
           style="opacity:0.99;fill:none;stroke:#000000;stroke-width:0.3;stroke-linecap:square;stroke-opacity:0.982301"
           id="circle2521"
           cx="45.443069"
           cy="38.474586"
           r="3.6322165" />
        <text
           xml:space="preserve"
           style="font-style:normal;font-weight:normal;font-size:3.94215px;line-height:1.25;font-family:sans-serif;fill:#000000;fill-opacity:1;stroke:none;stroke-width:0.0985541"
           x="43.011948"
           y="39.973103"
           id="text2525"><tspan
             sodipodi:role="line"
             id="tspan2523"
             x="43.011948"
             y="39.973103"
             style="stroke-width:0.0985541">12</tspan></text>
      </g>
      <g
         id="g2535"
         transform="translate(21.020393,42.548354)">
        <circle
           style="opacity:0.99;fill:none;stroke:#000000;stroke-width:0.3;stroke-linecap:square;stroke-opacity:0.982301"
           id="circle2529"
           cx="45.443069"
           cy="38.474586"
           r="3.6322165" />
        <text
           xml:space="preserve"
           style="font-style:normal;font-weight:normal;font-size:3.94215px;line-height:1.25;font-family:sans-serif;fill:#000000;fill-opacity:1;stroke:none;stroke-width:0.0985541"
           x="43.011948"
           y="39.973103"
           id="text2533"><tspan
             sodipodi:role="line"
             id="tspan2531"
             x="43.011948"
             y="39.973103"
             style="stroke-width:0.0985541">13</tspan></text>
      </g>
      <g
         id="g2543"
         transform="translate(44.420577,19.975836)">
        <circle
           style="opacity:0.99;fill:none;stroke:#000000;stroke-width:0.3;stroke-linecap:square;stroke-opacity:0.982301"
           id="circle2537"
           cx="45.443069"
           cy="38.474586"
           r="3.6322165" />
        <text
           xml:space="preserve"
           style="font-style:normal;font-weight:normal;font-size:3.94215px;line-height:1.25;font-family:sans-serif;fill:#000000;fill-opacity:1;stroke:none;stroke-width:0.0985541"
           x="43.011948"
           y="39.973103"
           id="text2541"><tspan
             sodipodi:role="line"
             id="tspan2539"
             x="43.011948"
             y="39.973103"
             style="stroke-width:0.0985541">17</tspan></text>
      </g>
      <g
         id="g2551"
         transform="translate(75.092629,19.975836)">
        <circle
           style="opacity:0.99;fill:none;stroke:#000000;stroke-width:0.3;stroke-linecap:square;stroke-opacity:0.982301"
           id="circle2545"
           cx="45.443069"
           cy="38.474586"
           r="3.6322165" />
        <text
           xml:space="preserve"
           style="font-style:normal;font-weight:normal;font-size:3.94215px;line-height:1.25;font-family:sans-serif;fill:#000000;fill-opacity:1;stroke:none;stroke-width:0.0985541"
           x="43.011948"
           y="39.973103"
           id="text2549"><tspan
             sodipodi:role="line"
             id="tspan2547"
             x="43.011948"
             y="39.973103"
             style="stroke-width:0.0985541">19</tspan></text>
      </g>
      <g
         id="g2559"
         transform="translate(-32.447802,42.548354)">
        <circle
           style="opacity:0.99;fill:none;stroke:#000000;stroke-width:0.3;stroke-linecap:square;stroke-opacity:0.982301"
           id="circle2553"
           cx="45.443069"
           cy="38.474586"
           r="3.6322165" />
        <text
           xml:space="preserve"
           style="font-style:normal;font-weight:normal;font-size:3.94215px;line-height:1.25;font-family:sans-serif;fill:#000000;fill-opacity:1;stroke:none;stroke-width:0.0985541"
           x="43.011948"
           y="39.973103"
           id="text2557"><tspan
             sodipodi:role="line"
             id="tspan2555"
             x="43.011948"
             y="39.973103"
             style="stroke-width:0.0985541">16</tspan></text>
      </g>
      <g
         id="g2567"
         transform="translate(-15.40521,42.548354)">
        <circle
           style="opacity:0.99;fill:none;stroke:#000000;stroke-width:0.3;stroke-linecap:square;stroke-opacity:0.982301"
           id="circle2561"
           cx="45.443069"
           cy="38.474586"
           r="3.6322165" />
        <text
           xml:space="preserve"
           style="font-style:normal;font-weight:normal;font-size:3.94215px;line-height:1.25;font-family:sans-serif;fill:#000000;fill-opacity:1;stroke:none;stroke-width:0.0985541"
           x="43.011948"
           y="39.973103"
           id="text2565"><tspan
             sodipodi:role="line"
             id="tspan2563"
             x="43.011948"
             y="39.973103"
             style="stroke-width:0.0985541">15</tspan></text>
      </g>
      <g
         id="g2575"
         transform="translate(1.6373767,42.548354)">
        <circle
           style="opacity:0.99;fill:none;stroke:#000000;stroke-width:0.3;stroke-linecap:square;stroke-opacity:0.982301"
           id="circle2569"
           cx="45.443069"
           cy="38.474586"
           r="3.6322165" />
        <text
           xml:space="preserve"
           style="font-style:normal;font-weight:normal;font-size:3.94215px;line-height:1.25;font-family:sans-serif;fill:#000000;fill-opacity:1;stroke:none;stroke-width:0.0985541"
           x="43.011948"
           y="39.973103"
           id="text2573"><tspan
             sodipodi:role="line"
             id="tspan2571"
             x="43.011948"
             y="39.973103"
             style="stroke-width:0.0985541">14</tspan></text>
      </g>
      <path
         style="fill:none;stroke:#000000;stroke-width:0.257538;stroke-linecap:butt;stroke-linejoin:miter;stroke-miterlimit:4;stroke-dasharray:none;stroke-opacity:1;marker-end:url(#marker2617)"
         d="M 72.03788,20.977454 48.934925,36.004547"
         id="path2577" />
      <path
         style="fill:none;stroke:#000000;stroke-width:0.265;stroke-linecap:butt;stroke-linejoin:miter;stroke-miterlimit:4;stroke-dasharray:none;stroke-opacity:1;marker-end:url(#marker2627)"
         d="M 77.660004,20.806655 102.68194,35.496954"
         id="path2579" />
      <path
         style="fill:none;stroke:#000000;stroke-width:0.176237;stroke-linecap:butt;stroke-linejoin:miter;stroke-miterlimit:4;stroke-dasharray:none;stroke-opacity:1;marker-end:url(#marker2637)"
         d="M 42.1664,40.608151 30.841475,54.963607"
         id="path2581" />
      <path
         style="fill:none;stroke:#000000;stroke-width:0.176237;stroke-linecap:butt;stroke-linejoin:miter;stroke-miterlimit:4;stroke-dasharray:none;stroke-opacity:1;marker-end:url(#marker2647)"
         d="M 48.614484,40.123856 59.939409,54.479312"
         id="path2583" />
      <path
         style="fill:none;stroke:#000000;stroke-width:0.176237;stroke-linecap:butt;stroke-linejoin:miter;stroke-miterlimit:4;stroke-dasharray:none;stroke-opacity:1;marker-end:url(#marker2657)"
         d="M 101.89618,40.285287 90.571261,54.640743"
         id="path2585" />
      <path
         style="fill:none;stroke:#000000;stroke-width:0.176237;stroke-linecap:butt;stroke-linejoin:miter;stroke-miterlimit:4;stroke-dasharray:none;stroke-opacity:1;marker-end:url(#marker2667)"
         d="M 108.34427,39.962424 119.66919,54.31788"
         id="path2587" />
      <path
         style="fill:none;stroke:#000000;stroke-width:0.176237;stroke-linecap:butt;stroke-linejoin:miter;stroke-miterlimit:4;stroke-dasharray:none;stroke-opacity:1;marker-end:url(#marker2677)"
         d="M 24.893192,62.562883 13.568267,76.918339"
         id="path2589" />
      <path
         style="fill:none;stroke:#000000;stroke-width:0.176237;stroke-linecap:butt;stroke-linejoin:miter;stroke-miterlimit:4;stroke-dasharray:none;stroke-opacity:1;marker-end:url(#marker2687)"
         d="m 28.344277,62.077486 1.782985,14.516638"
         id="path2591" />
      <path
         style="fill:none;stroke:#000000;stroke-width:0.176237;stroke-linecap:butt;stroke-linejoin:miter;stroke-miterlimit:4;stroke-dasharray:none;stroke-opacity:1;marker-end:url(#marker2697)"
         d="M 58.471017,62.078587 47.146092,76.434043"
         id="path2593" />
      <path
         style="fill:none;stroke:#000000;stroke-width:0.176237;stroke-linecap:butt;stroke-linejoin:miter;stroke-miterlimit:4;stroke-dasharray:none;stroke-opacity:1;marker-end:url(#marker2707)"
         d="m 61.922102,61.59319 1.782985,14.516638"
         id="path2595" />
      <g
         id="g2603"
         transform="translate(-18.75451,-57.450355)">
        <circle
           style="opacity:0.99;fill:#ff5555;stroke:#000000;stroke-width:0.3;stroke-linecap:square;stroke-opacity:0.982301"
           id="circle2597"
           cx="64.367294"
           cy="95.132111"
           r="3.6322165" />
        <text
           xml:space="preserve"
           style="font-style:normal;font-weight:normal;font-size:3.94215px;line-height:1.25;font-family:sans-serif;fill:#000000;fill-opacity:1;stroke:none;stroke-width:0.0985541"
           x="63.218147"
           y="96.622932"
           id="text2601"><tspan
             sodipodi:role="line"
             id="tspan2599"
             x="63.218147"
             y="96.622932"
             style="stroke-width:0.0985541">8</tspan></text>
      </g>
      <text
         xml:space="preserve"
         style="font-style:normal;font-weight:normal;font-size:3.7851px;line-height:1.25;font-family:sans-serif;fill:#000000;fill-opacity:1;stroke:none;stroke-width:0.264583"
         x="78.568886"
         y="77.419342"
         id="text2609"><tspan
           sodipodi:role="line"
           x="78.568886"
           y="77.419342"
           style="stroke-width:0.264583"
           id="tspan2605">3.sort the two adjacent</tspan><tspan
           sodipodi:role="line"
           x="78.568886"
           y="82.150719"
           style="stroke-width:0.264583"
           id="tspan2607">nodes </tspan></text>
      <ellipse
         style="opacity:0.99;fill:none;stroke:#000000;stroke-width:0.265;stroke-linecap:square;stroke-miterlimit:4;stroke-dasharray:0.265, 0.53;stroke-dashoffset:0;stroke-opacity:0.982301"
         id="circle2611"
         cx="52.807541"
         cy="48.853558"
         rx="14.510193"
         ry="19.408243" />
    </g>
    <g
       id="g3231"
       transform="translate(6.3569637,274.5404)">
      <g
         id="g3121"
         transform="translate(-29.095543,20.132461)">
        <circle
           style="opacity:0.99;fill:none;stroke:#000000;stroke-width:0.3;stroke-linecap:square;stroke-opacity:0.982301"
           id="circle3115"
           cx="74.9851"
           cy="18.322514"
           r="3.6322165" />
        <text
           xml:space="preserve"
           style="font-style:normal;font-weight:normal;font-size:3.94215px;line-height:1.25;font-family:sans-serif;fill:#000000;fill-opacity:1;stroke:none;stroke-width:0.0985541"
           x="73.835953"
           y="19.813334"
           id="text3119"><tspan
             sodipodi:role="line"
             id="tspan3117"
             x="73.835953"
             y="19.813334"
             style="stroke-width:0.0985541">9</tspan></text>
      </g>
      <g
         id="g3129"
         transform="translate(15.015843,19.696106)">
        <circle
           style="opacity:0.99;fill:none;stroke:#000000;stroke-width:0.3;stroke-linecap:square;stroke-opacity:0.982301"
           id="circle3123"
           cx="45.443069"
           cy="38.474586"
           r="3.6322165" />
        <text
           xml:space="preserve"
           style="font-style:normal;font-weight:normal;font-size:3.94215px;line-height:1.25;font-family:sans-serif;fill:#000000;fill-opacity:1;stroke:none;stroke-width:0.0985541"
           x="43.011948"
           y="39.973103"
           id="text3127"><tspan
             sodipodi:role="line"
             id="tspan3125"
             x="43.011948"
             y="39.973103"
             style="stroke-width:0.0985541">10</tspan></text>
      </g>
      <g
         id="g3137"
         transform="translate(1.0583333)">
        <circle
           style="opacity:0.99;fill:none;stroke:#000000;stroke-width:0.3;stroke-linecap:square;stroke-opacity:0.982301"
           id="circle3131"
           cx="103.8814"
           cy="38.474586"
           r="3.6322165" />
        <text
           xml:space="preserve"
           style="font-style:normal;font-weight:normal;font-size:3.94215px;line-height:1.25;font-family:sans-serif;fill:#000000;fill-opacity:1;stroke:none;stroke-width:0.0985541"
           x="101.50706"
           y="39.965408"
           id="text3135"><tspan
             sodipodi:role="line"
             id="tspan3133"
             x="101.50706"
             y="39.965408"
             style="stroke-width:0.0985541">15</tspan></text>
      </g>
      <g
         id="g3145"
         transform="translate(-16.950344,19.975836)">
        <circle
           style="opacity:0.99;fill:none;stroke:#000000;stroke-width:0.3;stroke-linecap:square;stroke-opacity:0.982301"
           id="circle3139"
           cx="45.443069"
           cy="38.474586"
           r="3.6322165" />
        <text
           xml:space="preserve"
           style="font-style:normal;font-weight:normal;font-size:3.94215px;line-height:1.25;font-family:sans-serif;fill:#000000;fill-opacity:1;stroke:none;stroke-width:0.0985541"
           x="43.011948"
           y="39.973103"
           id="text3143"><tspan
             sodipodi:role="line"
             id="tspan3141"
             x="43.011948"
             y="39.973103"
             style="stroke-width:0.0985541">12</tspan></text>
      </g>
      <g
         id="g3153"
         transform="translate(21.020393,42.548354)">
        <circle
           style="opacity:0.99;fill:none;stroke:#000000;stroke-width:0.3;stroke-linecap:square;stroke-opacity:0.982301"
           id="circle3147"
           cx="45.443069"
           cy="38.474586"
           r="3.6322165" />
        <text
           xml:space="preserve"
           style="font-style:normal;font-weight:normal;font-size:3.94215px;line-height:1.25;font-family:sans-serif;fill:#000000;fill-opacity:1;stroke:none;stroke-width:0.0985541"
           x="43.011948"
           y="39.973103"
           id="text3151"><tspan
             sodipodi:role="line"
             id="tspan3149"
             x="43.011948"
             y="39.973103"
             style="stroke-width:0.0985541">13</tspan></text>
      </g>
      <g
         id="g3161"
         transform="translate(44.420577,19.975836)">
        <circle
           style="opacity:0.99;fill:none;stroke:#000000;stroke-width:0.3;stroke-linecap:square;stroke-opacity:0.982301"
           id="circle3155"
           cx="45.443069"
           cy="38.474586"
           r="3.6322165" />
        <text
           xml:space="preserve"
           style="font-style:normal;font-weight:normal;font-size:3.94215px;line-height:1.25;font-family:sans-serif;fill:#000000;fill-opacity:1;stroke:none;stroke-width:0.0985541"
           x="43.011948"
           y="39.973103"
           id="text3159"><tspan
             sodipodi:role="line"
             id="tspan3157"
             x="43.011948"
             y="39.973103"
             style="stroke-width:0.0985541">17</tspan></text>
      </g>
      <g
         id="g3169"
         transform="translate(75.092629,19.975836)">
        <circle
           style="opacity:0.99;fill:none;stroke:#000000;stroke-width:0.3;stroke-linecap:square;stroke-opacity:0.982301"
           id="circle3163"
           cx="45.443069"
           cy="38.474586"
           r="3.6322165" />
        <text
           xml:space="preserve"
           style="font-style:normal;font-weight:normal;font-size:3.94215px;line-height:1.25;font-family:sans-serif;fill:#000000;fill-opacity:1;stroke:none;stroke-width:0.0985541"
           x="43.011948"
           y="39.973103"
           id="text3167"><tspan
             sodipodi:role="line"
             id="tspan3165"
             x="43.011948"
             y="39.973103"
             style="stroke-width:0.0985541">19</tspan></text>
      </g>
      <g
         id="g3177"
         transform="translate(-32.447802,42.548354)">
        <circle
           style="opacity:0.99;fill:none;stroke:#000000;stroke-width:0.3;stroke-linecap:square;stroke-opacity:0.982301"
           id="circle3171"
           cx="45.443069"
           cy="38.474586"
           r="3.6322165" />
        <text
           xml:space="preserve"
           style="font-style:normal;font-weight:normal;font-size:3.94215px;line-height:1.25;font-family:sans-serif;fill:#000000;fill-opacity:1;stroke:none;stroke-width:0.0985541"
           x="43.011948"
           y="39.973103"
           id="text3175"><tspan
             sodipodi:role="line"
             id="tspan3173"
             x="43.011948"
             y="39.973103"
             style="stroke-width:0.0985541">16</tspan></text>
      </g>
      <g
         id="g3185"
         transform="translate(-15.40521,42.548354)">
        <circle
           style="opacity:0.99;fill:none;stroke:#000000;stroke-width:0.3;stroke-linecap:square;stroke-opacity:0.982301"
           id="circle3179"
           cx="45.443069"
           cy="38.474586"
           r="3.6322165" />
        <text
           xml:space="preserve"
           style="font-style:normal;font-weight:normal;font-size:3.94215px;line-height:1.25;font-family:sans-serif;fill:#000000;fill-opacity:1;stroke:none;stroke-width:0.0985541"
           x="43.011948"
           y="39.973103"
           id="text3183"><tspan
             sodipodi:role="line"
             id="tspan3181"
             x="43.011948"
             y="39.973103"
             style="stroke-width:0.0985541">15</tspan></text>
      </g>
      <g
         id="g3193"
         transform="translate(1.6373767,42.548354)">
        <circle
           style="opacity:0.99;fill:none;stroke:#000000;stroke-width:0.3;stroke-linecap:square;stroke-opacity:0.982301"
           id="circle3187"
           cx="45.443069"
           cy="38.474586"
           r="3.6322165" />
        <text
           xml:space="preserve"
           style="font-style:normal;font-weight:normal;font-size:3.94215px;line-height:1.25;font-family:sans-serif;fill:#000000;fill-opacity:1;stroke:none;stroke-width:0.0985541"
           x="43.011948"
           y="39.973103"
           id="text3191"><tspan
             sodipodi:role="line"
             id="tspan3189"
             x="43.011948"
             y="39.973103"
             style="stroke-width:0.0985541">14</tspan></text>
      </g>
      <path
         style="fill:none;stroke:#000000;stroke-width:0.257538;stroke-linecap:butt;stroke-linejoin:miter;stroke-miterlimit:4;stroke-dasharray:none;stroke-opacity:1;marker-end:url(#marker3235)"
         d="M 72.03788,20.977454 48.934925,36.004547"
         id="path3195" />
      <path
         style="fill:none;stroke:#000000;stroke-width:0.265;stroke-linecap:butt;stroke-linejoin:miter;stroke-miterlimit:4;stroke-dasharray:none;stroke-opacity:1;marker-end:url(#marker3245)"
         d="M 77.660004,20.806655 102.68194,35.496954"
         id="path3197" />
      <path
         style="fill:none;stroke:#000000;stroke-width:0.176237;stroke-linecap:butt;stroke-linejoin:miter;stroke-miterlimit:4;stroke-dasharray:none;stroke-opacity:1;marker-end:url(#marker3255)"
         d="M 42.1664,40.608151 30.841475,54.963607"
         id="path3199" />
      <path
         style="fill:none;stroke:#000000;stroke-width:0.176237;stroke-linecap:butt;stroke-linejoin:miter;stroke-miterlimit:4;stroke-dasharray:none;stroke-opacity:1;marker-end:url(#marker3265)"
         d="M 48.614484,40.123856 59.939409,54.479312"
         id="path3201" />
      <path
         style="fill:none;stroke:#000000;stroke-width:0.176237;stroke-linecap:butt;stroke-linejoin:miter;stroke-miterlimit:4;stroke-dasharray:none;stroke-opacity:1;marker-end:url(#marker3275)"
         d="M 101.89618,40.285287 90.571261,54.640743"
         id="path3203" />
      <path
         style="fill:none;stroke:#000000;stroke-width:0.176237;stroke-linecap:butt;stroke-linejoin:miter;stroke-miterlimit:4;stroke-dasharray:none;stroke-opacity:1;marker-end:url(#marker3285)"
         d="M 108.34427,39.962424 119.66919,54.31788"
         id="path3205" />
      <path
         style="fill:none;stroke:#000000;stroke-width:0.176237;stroke-linecap:butt;stroke-linejoin:miter;stroke-miterlimit:4;stroke-dasharray:none;stroke-opacity:1;marker-end:url(#marker3295)"
         d="M 24.893192,62.562883 13.568267,76.918339"
         id="path3207" />
      <path
         style="fill:none;stroke:#000000;stroke-width:0.176237;stroke-linecap:butt;stroke-linejoin:miter;stroke-miterlimit:4;stroke-dasharray:none;stroke-opacity:1;marker-end:url(#marker3305)"
         d="m 28.344277,62.077486 1.782985,14.516638"
         id="path3209" />
      <path
         style="fill:none;stroke:#000000;stroke-width:0.176237;stroke-linecap:butt;stroke-linejoin:miter;stroke-miterlimit:4;stroke-dasharray:none;stroke-opacity:1;marker-end:url(#marker3315)"
         d="M 58.471017,62.078587 47.146092,76.434043"
         id="path3211" />
      <path
         style="fill:none;stroke:#000000;stroke-width:0.176237;stroke-linecap:butt;stroke-linejoin:miter;stroke-miterlimit:4;stroke-dasharray:none;stroke-opacity:1;marker-end:url(#marker3325)"
         d="m 61.922102,61.59319 1.782985,14.516638"
         id="path3213" />
      <g
         id="g3221"
         transform="translate(11.168394,-76.617561)">
        <circle
           style="opacity:0.99;fill:#ff5555;stroke:#000000;stroke-width:0.3;stroke-linecap:square;stroke-opacity:0.982301"
           id="circle3215"
           cx="64.367294"
           cy="95.132111"
           r="3.6322165" />
        <text
           xml:space="preserve"
           style="font-style:normal;font-weight:normal;font-size:3.94215px;line-height:1.25;font-family:sans-serif;fill:#000000;fill-opacity:1;stroke:none;stroke-width:0.0985541"
           x="63.218147"
           y="96.622932"
           id="text3219"><tspan
             sodipodi:role="line"
             id="tspan3217"
             x="63.218147"
             y="96.622932"
             style="stroke-width:0.0985541">8</tspan></text>
      </g>
      <text
         xml:space="preserve"
         style="font-style:normal;font-weight:normal;font-size:3.7851px;line-height:1.25;font-family:sans-serif;fill:#000000;fill-opacity:1;stroke:none;stroke-width:0.264583"
         x="78.568886"
         y="77.419342"
         id="text3227"><tspan
           sodipodi:role="line"
           x="78.568886"
           y="77.419342"
           style="stroke-width:0.264583"
           id="tspan3223">4.sort the two adjacent</tspan><tspan
           sodipodi:role="line"
           x="78.568886"
           y="82.150719"
           style="stroke-width:0.264583"
           id="tspan3225">nodes </tspan></text>
      <ellipse
         style="opacity:0.99;fill:none;stroke:#000000;stroke-width:0.265;stroke-linecap:square;stroke-miterlimit:4;stroke-dasharray:0.265, 0.53;stroke-dashoffset:0;stroke-opacity:0.982301"
         id="circle3229"
         cx="62.689331"
         cy="29.600224"
         rx="24.77697"
         ry="20.89068" />
    </g>
  </g>
</svg>
